{
    "GET/" : {"controler": "index"},
    "GET/users" : {"controler" : "users"},
    "GET/competence" : {"controler" : "competence"},
    "GET/travail" : {"controler" : "travail"},
    "GET/detail" : {"controler" : "detail"},
    "GET/dam" : {"controler" : "dam"}
}